# A tibble: 486 x 4
# Rowwise: 
   NUMBER m      r.squared standard_error
    <int> <list>     <dbl>          <dbl>
 1      1 <lm>      0.190            36.7
 2      2 <lm>      0.0602          157. 
 3      3 <lm>      0.675            22.2
 4      4 <lm>      0.158            32.9
 5      5 <lm>      0.186            31.7
 6      6 <lm>      0.289            40.9
 7      7 <lm>      0.454            31.3
 8      8 <lm>      0.554            25.1
 9     10 <lm>      0.254            39.1
10     11 <lm>      0.438            29.2
# … with 476 more rows
…
